{
  "type": "service_account",
  "project_id": "user-auth-lambda",
  "private_key_id": "100879eb8fa6d2732d494f6de5246494163ca712",
  "private_key": "-----BEGIN PRIVATE KEY-----\nMIIEvQIBADANBgkqhkiG9w0BAQEFAASCBKcwggSjAgEAAoIBAQCn4Mq83DuNNXb+\n+OQbxx1jEVNc0tkAIhFXk8yv+P9i7JrNpYBUXb+EeJQxBQuZhVc4AEiJYt8uaqT8\nOzVLuEaARwT3Ka07padjR36J071IforTECW+AAPCGAkCJKuUnrRM3w93nvTUuZsl\nxRV0Gde0Ab9eatdvTzYtUg5+yTZ9ODCeY1Te7BDWhWm7YWCV5doyTUbQKFH4T6Kv\nSZaDeHk64ymH+qaTV3rNDc4myEKr7rx6H5A7ojAZGfqBCTDsnGqh1DGsORIA3C0Z\nsgRBw2TEatDSFZiUYwzaTCnzCeFXFwQqikO91VWXRAoZWSDHBMqqXQuub4qrTn0B\nGjjfsn2/AgMBAAECggEAJgDpZF+my4yy532IhhFJQcgGSxkgLruHmX/H8n43sjlF\nwhAZQQAH/wEc6wvtWE+rMu49fXx4cZWKy97LbdzFePyazykMIliZ0Au7RZA9ZU/g\nNW+OW7i9IQ832thaT0auIkjMw5OkcROjX6WB+cpv3jwXClS9eGFCLnhI98KtJyNX\nNbgNfkYWeSgyZnuuhZ7z9Z26DrMyaM9o+6MTUz2lUiL67jx8tVy6j4ma7QqLDyDN\n/FOwYheW3yLUsbV52R8R6GUxExGinwH7s5MDouQQnAKcarViWLFlw48vwzSgA4iN\nZm+IdkrnA7FEvOAvLFJAPzvrADYhBhEcY7tMmvTfwQKBgQDcRSCYVdzdm9l+Wuq+\noGxs7KxaOy1IFNxKR6dhQLTo5HnTfspru60aSg2c/HreQqpc4XLUlTh8YKQbLqHR\nyiVBe0HCVuYSQAgZC6TKibNE8xz7Gl+fD22WquPog9hnGx7I0OJQVTWHBwuIlt5Q\njrIl29beqhZkN5rprKZ/hy5ERwKBgQDDHA0whSHkWdK3kIkLQ04N3+5fJmMI2mCc\nD+gTVNSr4Xv0EtyGdTdji0fLLNSsGHIL2qFVDbz+fhuqGN8hl4J/Or3kmJK+3LPe\nH1RDErFviTCzUn6Z9ULKye32KOxDOLdERXxZLwCfCCzDzVoYrwPPyAiEvaajyo/8\ntfwJBsUOyQKBgBclsIoxo7cqFI4Bsd98bkh4Cpik1VpYztmDdCR1L022DNNb5Juz\nqjo0BAA2TBclPE/sZSvPzpLLeRNeMCUisA2UjVGF3kGWtwMixRt/ovYg8i+1Es1d\nSq/ln3Okv03+fJqv0MiOW8Snyd99szkV9cSiuI7Hovi/GylpOkn2g7crAoGBAI9J\nkJ4rh8Jt/QR2j07INRCXfjY+uMiNqBm0zNk1maJJTIDpQS818mGWrjkWSXHB2i++\ndnFCT6QO9T4sWeIPpPTPLRouusaUyzu7gmRn3Atvk2Z+lR94MX9AYRRA5ZJQmrb2\n2OWeUTR6CnYZ36r1DTWRUEA8D5+GacxL0jbG0/2RAoGAUiYDvUUcJJH8w4aXIH7d\nN/RIE9z85287q34ptZQmEJ2z9EH85K/K5ZMZVKcAbhlQzia0YUQFAaUqISeG4TM4\nphXFTJnWtTm7ulF5l9OchS0isdWjjFHtyWLZBgcE3vRzhd4s7gHl7DVVAt70TM+g\ncpZj9QcDBHFWRLkJvfyFXsg=\n-----END PRIVATE KEY-----\n",
  "client_email": "firebase-adminsdk-7qjcb@user-auth-lambda.iam.gserviceaccount.com",
  "client_id": "101753162494817234026",
  "auth_uri": "https://accounts.google.com/o/oauth2/auth",
  "token_uri": "https://oauth2.googleapis.com/token",
  "auth_provider_x509_cert_url": "https://www.googleapis.com/oauth2/v1/certs",
  "client_x509_cert_url": "https://www.googleapis.com/robot/v1/metadata/x509/firebase-adminsdk-7qjcb%40user-auth-lambda.iam.gserviceaccount.com"
}
